…
    ## Rows: 10 Columns: 11
    ## ── Column specification ────────────────────────────────────────────────────────
    ## Delimiter: ","
    ## dbl (11): Episode, Series 1, Series 2, Series 3, Series 4, Series 5, Series ...
    ## 
    ## ℹ Use `spec()` to retrieve the full column specification for this data.
    ## ℹ Specify the column types or set `show_col_types = FALSE` to quiet this message.

``` r
# check for completeness and correctness

anti_join(data_3_1,data_3_2, by = c("baker","series"))
```

    ## # A tibble: 26 × 6
    ##    series baker_age baker_occupation               hometown      baker last_name
    ##     <dbl>     <dbl> <chr>                          <chr>         <chr> <chr>    
    ##  1     10        28 Geography teacher              Essex         Alice Fevronia 
    ##  2     10        24 Fashion designer               Halifax       Amel… LeBruin  
    ##  3      9        30 Banker                         London        Anto… Amourdoux
    ##  4      9        33 Full-time parent               Bristol       Brio… Williams 
    ##  5      9        36 Full-time parent               London        Dan   Beasley-…
    ##  6     10        32 Support worker                 Rotherham     Dan   Chambers 
    ##  7     10        36 International health adviser   Whitby        David Atherton 
    ##  8     10        40 Online project manager         Leeds         Hele… Garcia   
    ##  9     10        20 Student                        Durham        Henry Bird     
    ## 10      9        33 Countryside recreation officer County Tyrone Imel… McCarron 
    ## # ℹ 16 more rows
…
